NULL,7.75274276733398000000E-09
DEC_INT_INIT,6.68526649475098000000E-09
DEC_FLOAT_INIT,6.66998863220215000000E-09
DEC_DOUBLE_INIT,7.65257835388184000000E-09
ASS_VAR_INT,7.58554458618164000000E-09
ASS_VAR_FLOAT,7.74132728576660000000E-09
ASS_VAR_DOUBLE,6.53437614440918000000E-09
ASS_VAR_VAR_INT,1.08798980712891000000E-09
ASS_VAR_VAR_FLOAT,5.75348854064941000000E-09
ASS_VAR_VAR_DOUBLE,5.76000408250458000000E-10
ASS_ADD_INT_INT,7.59155273437500000000E-09
ASS_ADD_FLOAT_FLOAT,6.78654670715332000000E-09
ASS_ADD_DOUBLE_DOUBLE,6.32520675659180000000E-09
ASS_ADD_VAR_VAR_INT,1.23373305591721000000E-09
ASS_ADD_VAR_VAR_FLOAT,5.89923178943772000000E-09
ASS_ADD_VAR_VAR_DOUBLE,7.21743657038762000000E-10
ASS_ADD_VAR_INT,4.23169817243304000000E-10
ASS_ADD_VAR_FLOAT,4.89406133952894000000E-09
ASS_ADD_VAR_DOUBLE,8.76674652099610000000E-10
ASS_SUB_INT_INT,7.53893852233887000000E-09
ASS_SUB_FLOAT_FLOAT,6.35155677795410000000E-09
ASS_SUB_DOUBLE_DOUBLE,6.78955078125000000000E-09
ASS_SUB_VAR_VAR_INT,1.32373305591721000000E-09
ASS_SUB_VAR_VAR_FLOAT,7.24923178943772000000E-09
ASS_SUB_VAR_VAR_DOUBLE,8.58375549316406000000E-10
ASS_SUB_VAR_INT,5.25802612304688000000E-09
ASS_SUB_VAR_FLOAT,2.44111061096191000000E-09
ASS_SUB_VAR_DOUBLE,1.99270870374597000000E-09
ASS_MUL_INT_INT,6.88568115234375000000E-09
ASS_MUL_FLOAT_FLOAT,6.49738311767578000000E-09
ASS_MUL_DOUBLE_DOUBLE,6.86173439025879000000E-09
ASS_MUL_VAR_VAR_INT,1.23373305591721000000E-09
ASS_MUL_VAR_VAR_FLOAT,5.89923178943772000000E-09
ASS_MUL_VAR_VAR_DOUBLE,1.22623443603516000000E-09
ASS_MUL_VAR_INT,1.46000453404018000000E-09
ASS_MUL_VAR_FLOAT,1.94280215672084000000E-09
ASS_MUL_VAR_DOUBLE,1.80590845503897000000E-09
ASS_DIV_INT_INT,6.84216499328613000000E-09
ASS_DIV_FLOAT_FLOAT,6.80920600891113000000E-09
ASS_DIV_DOUBLE_DOUBLE,7.40040779113770000000E-09
ASS_DIV_VAR_VAR_INT,4.81255439019972000000E-10
ASS_DIV_VAR_VAR_FLOAT,1.18052120866447000000E-09
ASS_DIV_VAR_VAR_DOUBLE,1.18052120866447000000E-09
ASS_DIV_VAR_INT,3.73476300920759000000E-09
ASS_DIV_VAR_FLOAT,4.41568039559029000000E-09
ASS_DIV_VAR_DOUBLE,2.12523460388184000000E-09
CMP_VAR_INT,3.13934326171875000000E-09
CMP_VAR_FLOAT,3.62557411193848000000E-09
CMP_VAR_DOUBLE,1.21261596679688000000E-09
CMP_VAR_VAR_INT,1.37432098388672000000E-09
CMP_VAR_VAR_FLOAT,1.37432098388672000000E-09
CMP_VAR_VAR_DOUBLE,1.37432098388672000000E-09
ASS_VAR_CHAR,6.81907653808594000000E-09
ASS_VAR_VAR_CHAR,4.02637348618618000000E-09
CMP_VAR_CHAR,4.51387405395508000000E-09
CMP_VAR_VAR_CHAR,1.37432098388672000000E-09
DEC_ARRAY,6.52879714965820000000E-09
DEC_STRUCT,6.27388000488281000000E-09
ASS_VAR_ADDR,6.85873031616211000000E-09
ADDR_CALC,4.45365905761719000000E-11
ARR_POS_LOAD,7.72333145141602000000E-10
ASS_VAR_REF_INT,7.72333145141602000000E-10
ASS_VAR_REF_CHAR,7.72333145141602000000E-10
ASS_VAR_REF_FLOAT,7.72333145141602000000E-10
ASS_VAR_REF_DOUBLE,7.72333145141602000000E-10
ASS_VAR_REF_ADDR,5.05728553323185000000E-09
CAST_INT,9.17873382568359000000E-10
CAST_CHAR,4.45132664271763000000E-09
CAST_FLOAT,1.69996379172965000000E-09
CAST_DOUBLE,5.00125798312101000000E-09
CAST_ADDR,2.44085865636026000000E-10
FUN_scanf,4.71799278259277000000E-07
FUN_printf,2.70067806243896000000E-07
FUN_strlen,3.80140686035156000000E-08
FUN_strcpy,4.07556724548340000000E-08
FUN_strcat,4.09342002868652000000E-08
FUN_sprintf,3.74226951599121000000E-07
FUN_fprintf,5.38408870697022000000E-07
FUN_fopen,3.03699703216553000000E-07
FUN_fclose,3.11715946197510000000E-07
FUN_fread,3.05256500244141000000E-07
FUN_time,2.65657997131348000000E-08
FUN_srand,4.93836084365845000000E-06
FUN_rand,4.96456323623657000000E-06
FUN_atoi,9.53764343261719000000E-08
FUN_floor,1.52798366546631000000E-08
FUN_fmod,5.56570816040039000000E-08
FUN_malloc,1.03822174072266000000E-07
FUN_free,9.64663124084473000000E-08
