{
    "products": [
        {
            "observed": 112.68333435058594,
            "estimated": 115.94022170929932,
            "reference": "SPL - NoZ3",
            "details": {
                "ADDR_CALC": 9409552122,
                "ARR_POS_LOAD": 398338890,
                "ASS_ADD_VAR_DOUBLE": 0,
                "ASS_ADD_VAR_INT": 2443506777,
                "ASS_ADD_VAR_VAR_DOUBLE": 8331124,
                "ASS_ADD_VAR_VAR_INT": 4966728536,
                "ASS_DIV_VAR_INT": 32400,
                "ASS_MUL_VAR_VAR_DOUBLE": 134373892,
                "ASS_MUL_VAR_VAR_INT": 4826883518,
                "ASS_SUB_VAR_DOUBLE": 0,
                "ASS_SUB_VAR_INT": 3089807261,
                "ASS_SUB_VAR_VAR_DOUBLE": 32400,
                "ASS_SUB_VAR_VAR_INT": 399795272,
                "ASS_VAR_ADDR": 3366710834,
                "ASS_VAR_DOUBLE": 294901096,
                "ASS_VAR_INT": 796284858,
                "ASS_VAR_REF_ADDR": 6695199962,
                "ASS_VAR_REF_INT": 6732948197,
                "ASS_VAR_VAR_CHAR": 25,
                "ASS_VAR_VAR_DOUBLE": 542607161,
                "ASS_VAR_VAR_INT": 4993895741,
                "CAST_ADDR": 141952,
                "CAST_CHAR": 6,
                "CAST_DOUBLE": 141078377,
                "CAST_INT": 8298873,
                "CMP_VAR_INT": 1194694792,
                "CMP_VAR_VAR_DOUBLE": 0,
                "CMP_VAR_VAR_INT": 2177987263,
                "FUN_atoi": 1,
                "FUN_fclose": 2,
                "FUN_floor": 1,
                "FUN_fmod": 0,
                "FUN_fopen": 2,
                "FUN_fprintf": 32408,
                "FUN_fread": 32400,
                "FUN_free": 4635,
                "FUN_malloc": 7036,
                "FUN_printf": 4429,
                "FUN_sprintf": 2,
                "FUN_strcat": 2,
                "FUN_strcpy": 4,
                "FUN_strlen": 6,
                "FUN_time": 1,
                "NULL": 3944
            }
        },
        {
            "observed": 91.50666809082031,
            "estimated": 99.47780923517756,
            "reference": "SPL - Z3",
            "details": {
                "ADDR_CALC": 7418474268,
                "ARR_POS_LOAD": 392,
                "ASS_ADD_VAR_DOUBLE": 0,
                "ASS_ADD_VAR_INT": 1785480513,
                "ASS_ADD_VAR_VAR_DOUBLE": 8331126,
                "ASS_ADD_VAR_VAR_INT": 4435679575,
                "ASS_DIV_VAR_INT": 32400,
                "ASS_MUL_VAR_VAR_DOUBLE": 134373894,
                "ASS_MUL_VAR_VAR_INT": 4030206331,
                "ASS_SUB_VAR_DOUBLE": 0,
                "ASS_SUB_VAR_INT": 2293127551,
                "ASS_SUB_VAR_VAR_DOUBLE": 32400,
                "ASS_SUB_VAR_VAR_INT": 399933389,
                "ASS_VAR_ADDR": 3637960641,
                "ASS_VAR_DOUBLE": 433346990,
                "ASS_VAR_INT": 132793387,
                "ASS_VAR_REF_ADDR": 7259564289,
                "ASS_VAR_REF_INT": 3790963315,
                "ASS_VAR_VAR_CHAR": 24,
                "ASS_VAR_VAR_DOUBLE": 542606772,
                "ASS_VAR_VAR_INT": 2610309702,
                "CAST_ADDR": 1742373219,
                "CAST_CHAR": 6,
                "CAST_DOUBLE": 141078379,
                "CAST_INT": 8298881,
                "CMP_VAR_INT": 536865858,
                "CMP_VAR_VAR_DOUBLE": 0,
                "CMP_VAR_VAR_INT": 1381512720,
                "FUN_atoi": 1,
                "FUN_fclose": 2,
                "FUN_floor": 1,
                "FUN_fmod": 0,
                "FUN_fopen": 2,
                "FUN_fprintf": 32408,
                "FUN_fread": 32400,
                "FUN_free": 2892,
                "FUN_malloc": 5230,
                "FUN_printf": 2687,
                "FUN_sprintf": 2,
                "FUN_srand": 1,
                "FUN_strcat": 2,
                "FUN_strcpy": 4,
                "FUN_strlen": 6,
                "FUN_time": 1,
                "NULL": 3661
            }
        },
        {
            "observed": 87.01817321777344,
            "estimated": 99.47529776235297,
            "reference": "SPL - Unchecked",
            "details": {
                "ADDR_CALC": 7418150441,
                "ARR_POS_LOAD": 201,
                "ASS_ADD_VAR_DOUBLE": 0,
                "ASS_ADD_VAR_INT": 1785425675,
                "ASS_ADD_VAR_VAR_DOUBLE": 8331126,
                "ASS_ADD_VAR_VAR_INT": 4435518295,
                "ASS_DIV_VAR_INT": 32400,
                "ASS_MUL_VAR_VAR_DOUBLE": 134320134,
                "ASS_MUL_VAR_VAR_INT": 4030044924,
                "ASS_SUB_VAR_DOUBLE": 0,
                "ASS_SUB_VAR_INT": 2293127360,
                "ASS_SUB_VAR_VAR_DOUBLE": 32400,
                "ASS_SUB_VAR_VAR_INT": 399879629,
                "ASS_VAR_ADDR": 3637958833,
                "ASS_VAR_DOUBLE": 433346990,
                "ASS_VAR_INT": 132792287,
                "ASS_VAR_REF_ADDR": 7259240775,
                "ASS_VAR_REF_INT": 3790960609,
                "ASS_VAR_VAR_CHAR": 24,
                "ASS_VAR_VAR_DOUBLE": 542499252,
                "ASS_VAR_VAR_INT": 2610251294,
                "CAST_ADDR": 1742371281,
                "CAST_CHAR": 6,
                "CAST_DOUBLE": 141078379,
                "CAST_INT": 8298881,
                "CMP_VAR_INT": 536863935,
                "CMP_VAR_VAR_DOUBLE": 0,
                "CMP_VAR_VAR_INT": 1381457810,
                "FUN_atoi": 1,
                "FUN_fclose": 2,
                "FUN_floor": 1,
                "FUN_fmod": 0,
                "FUN_fopen": 2,
                "FUN_fprintf": 32408,
                "FUN_fread": 32400,
                "FUN_free": 2697,
                "FUN_malloc": 4908,
                "FUN_printf": 2492,
                "FUN_sprintf": 2,
                "FUN_srand": 1,
                "FUN_strcat": 2,
                "FUN_strcpy": 4,
                "FUN_strlen": 6,
                "FUN_time": 1,
                "NULL": 35972
            }
        },
        {
            "observed": 64.01776123046875,
            "estimated": 66.0104273026012,
            "reference": "SPL - Modified1",
            "details": {
                "ADDR_CALC": 5255493900,
                "ARR_POS_LOAD": 71,
                "ASS_ADD_VAR_INT": 1646042155,
                "ASS_ADD_VAR_VAR_DOUBLE": 8331126,
                "ASS_ADD_VAR_VAR_INT": 3212937055,
                "ASS_DIV_VAR_INT": 32400,
                "ASS_MUL_VAR_VAR_DOUBLE": 134250501,
                "ASS_MUL_VAR_VAR_INT": 2277459404,
                "ASS_SUB_VAR_INT": 1879121286,
                "ASS_SUB_VAR_VAR_DOUBLE": 32400,
                "ASS_SUB_VAR_VAR_INT": 399809925,
                "ASS_VAR_ADDR": 2421313863,
                "ASS_VAR_DOUBLE": 561183090,
                "ASS_VAR_INT": 11046,
                "ASS_VAR_REF_ADDR": 3629717805,
                "ASS_VAR_REF_INT": 4038457728,
                "ASS_VAR_VAR_CHAR": 23,
                "ASS_VAR_VAR_DOUBLE": 675139338,
                "ASS_VAR_VAR_INT": 2483568412,
                "CAST_ADDR": 401975242,
                "CAST_CHAR": 6,
                "CAST_DOUBLE": 145225581,
                "CAST_INT": 8298885,
                "CMP_VAR_INT": 268578842,
                "CMP_VAR_VAR_DOUBLE": 132779520,
                "CMP_VAR_VAR_INT": 1112018417,
                "FUN_atoi": 1,
                "FUN_fclose": 2,
                "FUN_fopen": 2,
                "FUN_fprintf": 32408,
                "FUN_fread": 32400,
                "FUN_free": 2421,
                "FUN_malloc": 4385,
                "FUN_printf": 2285,
                "FUN_sprintf": 2,
                "FUN_srand": 1,
                "FUN_strcat": 2,
                "FUN_strcpy": 4,
                "FUN_strlen": 6,
                "FUN_time": 1,
                "NULL": 35537
            }
        },
        {
            "observed": 63.56205749511719,
            "estimated": 69.63277710664786,
            "reference": "SPL - Modified2",
            "details": {
                "ADDR_CALC": 5653691302,
                "ARR_POS_LOAD": 202,
                "ASS_ADD_VAR_INT": 1510249599,
                "ASS_ADD_VAR_VAR_DOUBLE": 8331124,
                "ASS_ADD_VAR_VAR_INT": 3345716576,
                "ASS_DIV_VAR_INT": 32400,
                "ASS_MUL_VAR_VAR_DOUBLE": 134250500,
                "ASS_MUL_VAR_VAR_INT": 2410238614,
                "ASS_SUB_VAR_INT": 1879120909,
                "ASS_SUB_VAR_VAR_DOUBLE": 32400,
                "ASS_SUB_VAR_VAR_INT": 399809920,
                "ASS_VAR_ADDR": 3617835116,
                "ASS_VAR_DOUBLE": 292681968,
                "ASS_VAR_INT": 132788600,
                "ASS_VAR_REF_ADDR": 2427166103,
                "ASS_VAR_REF_INT": 6700006917,
                "ASS_VAR_VAR_CHAR": 23,
                "ASS_VAR_VAR_DOUBLE": 675139093,
                "ASS_VAR_VAR_INT": 2480411604,
                "CAST_ADDR": 267718394,
                "CAST_CHAR": 6,
                "CAST_DOUBLE": 145225577,
                "CAST_INT": 8298878,
                "CMP_VAR_INT": 132854828,
                "CMP_VAR_VAR_DOUBLE": 132779520,
                "CMP_VAR_VAR_INT": 1244726414,
                "FUN_atoi": 1,
                "FUN_fclose": 2,
                "FUN_fopen": 2,
                "FUN_fprintf": 32408,
                "FUN_fread": 32400,
                "FUN_free": 2038,
                "FUN_malloc": 3625,
                "FUN_printf": 1774,
                "FUN_sprintf": 2,
                "FUN_srand": 1,
                "FUN_strcat": 2,
                "FUN_strcpy": 4,
                "FUN_strlen": 6,
                "FUN_time": 1,
                "NULL": 35024
            }
        },
        {
            "observed": 58.2598876953125,
            "estimated": 64.41115245573936,
            "reference": "SPL - NoIntermediates",
            "details": {
                "ADDR_CALC": 5247050276,
                "ARR_POS_LOAD": 74,
                "ASS_ADD_VAR_INT": 1373317377,
                "ASS_ADD_VAR_VAR_DOUBLE": 8331126,
                "ASS_ADD_VAR_VAR_INT": 3212937120,
                "ASS_DIV_VAR_INT": 32400,
                "ASS_MUL_VAR_VAR_DOUBLE": 134250502,
                "ASS_MUL_VAR_VAR_INT": 2277457794,
                "ASS_SUB_VAR_INT": 1879119763,
                "ASS_SUB_VAR_VAR_DOUBLE": 32400,
                "ASS_SUB_VAR_VAR_INT": 399809920,
                "ASS_VAR_ADDR": 3617822094,
                "ASS_VAR_DOUBLE": 292681968,
                "ASS_VAR_INT": 2848,
                "ASS_VAR_REF_ADDR": 1887752004,
                "ASS_VAR_REF_INT": 6699987465,
                "ASS_VAR_VAR_CHAR": 23,
                "ASS_VAR_VAR_DOUBLE": 675138585,
                "ASS_VAR_VAR_INT": 2202384001,
                "CAST_ADDR": 267702449,
                "CAST_CHAR": 6,
                "CAST_DOUBLE": 145225645,
                "CAST_INT": 8298878,
                "CMP_VAR_INT": 67618,
                "CMP_VAR_VAR_DOUBLE": 132779520,
                "CMP_VAR_VAR_INT": 1107792038,
                "FUN_atoi": 1,
                "FUN_fclose": 2,
                "FUN_fopen": 2,
                "FUN_fprintf": 32408,
                "FUN_fread": 32400,
                "FUN_free": 496,
                "FUN_malloc": 783,
                "FUN_printf": 424,
                "FUN_sprintf": 2,
                "FUN_srand": 1,
                "FUN_strcat": 2,
                "FUN_strcpy": 4,
                "FUN_strlen": 6,
                "FUN_time": 1,
                "NULL": 33224
            }
        },
        {
            "observed": 56.87734985351563,
            "estimated": 66.57952317961448,
            "reference": "SPL - ManualInterch.",
            "details": {
                "ADDR_CALC": 5380978024,
                "ARR_POS_LOAD": 74,
                "ASS_ADD_VAR_INT": 1373263395,
                "ASS_ADD_VAR_VAR_DOUBLE": 8331126,
                "ASS_ADD_VAR_VAR_INT": 3212722336,
                "ASS_DIV_VAR_INT": 32400,
                "ASS_MUL_VAR_VAR_DOUBLE": 134250502,
                "ASS_MUL_VAR_VAR_INT": 2277296706,
                "ASS_SUB_VAR_INT": 2013209171,
                "ASS_SUB_VAR_VAR_DOUBLE": 32400,
                "ASS_SUB_VAR_VAR_INT": 399809920,
                "ASS_VAR_ADDR": 3751750192,
                "ASS_VAR_DOUBLE": 292681968,
                "ASS_VAR_INT": 2562,
                "ASS_VAR_REF_ADDR": 1887751973,
                "ASS_VAR_REF_INT": 6967843677,
                "ASS_VAR_VAR_CHAR": 23,
                "ASS_VAR_VAR_DOUBLE": 675138585,
                "ASS_VAR_VAR_INT": 2470830226,
                "CAST_ADDR": 267702441,
                "CAST_CHAR": 6,
                "CAST_DOUBLE": 145225645,
                "CAST_INT": 8298878,
                "CMP_VAR_INT": 67324,
                "CMP_VAR_VAR_DOUBLE": 132779520,
                "CMP_VAR_VAR_INT": 1107738064,
                "FUN_atoi": 1,
                "FUN_fclose": 2,
                "FUN_fopen": 2,
                "FUN_fprintf": 32408,
                "FUN_fread": 32400,
                "FUN_free": 496,
                "FUN_malloc": 783,
                "FUN_printf": 424,
                "FUN_sprintf": 2,
                "FUN_srand": 1,
                "FUN_strcat": 2,
                "FUN_strcpy": 4,
                "FUN_strlen": 6,
                "FUN_time": 1,
                "NULL": 33224
            }
        }
    ]
}