X_RANGE 51.17
Y_RANGE 878248.00
ORDER OTHER 1
ORDER (230)GHC.IO.Encoding.CAF 2
ORDER (523)join/eval.r.res.x/eva... 3
ORDER (395)swapIfExists/swapVars... 4
ORDER (789)join/eval.r.x/eval.r/... 5
ORDER (666)resetByType/eval.r.re... 6
ORDER (553)eval.r.ref/eval.r/eva... 7
ORDER (642)nubValues.\/nubValues... 8
ORDER (388)swapVars/getStmtsFunc... 9
ORDER (357)analyseNodes/createNo... 10
ORDER (703)join/eval.r.x/eval.r/... 11
ORDER (621)nubValues/eval.r/eval... 12
ORDER (386)replaceVarsFunc/getSt... 13
ORDER (352)createCFG/testCFG/mai... 14
ORDER (631)join/eval.r/eval/exec... 15
ORDER (211)GHC.Float.CAF 16
ORDER (396)swapLocalVars/replace... 17
ORDER (625)join/eval.r.x/eval.r/... 18
ORDER (174)PINNED 19
ORDER (347)main.ast/main 20
SHADE OTHER 0.00
SHADE (230)GHC.IO.Encoding.CAF 0.00
SHADE (523)join/eval.r.res.x/eva... 0.00
SHADE (395)swapIfExists/swapVars... 0.00
SHADE (789)join/eval.r.x/eval.r/... 0.10
SHADE (666)resetByType/eval.r.re... 0.10
SHADE (553)eval.r.ref/eval.r/eva... 0.10
SHADE (642)nubValues.\/nubValues... 0.10
SHADE (388)swapVars/getStmtsFunc... 0.00
SHADE (357)analyseNodes/createNo... 0.00
SHADE (703)join/eval.r.x/eval.r/... 0.00
SHADE (621)nubValues/eval.r/eval... 0.00
SHADE (386)replaceVarsFunc/getSt... 0.05
SHADE (352)createCFG/testCFG/mai... 0.05
SHADE (631)join/eval.r/eval/exec... 0.05
SHADE (211)GHC.Float.CAF 0.05
SHADE (396)swapLocalVars/replace... 0.10
SHADE (625)join/eval.r.x/eval.r/... 0.10
SHADE (174)PINNED 0.10
SHADE (347)main.ast/main 0.10
